…
For the rest variables, the missing values are not easy to retrieve but
the good news is either dropping a small number of rows or replacing
some with mode can be practically acceptable solutions:

-   Use mode in `country` to replace NA  
-   NAs in `cast` and `director` will be replaced with `No data`
-   Drop rows containing NAs in `rating` & `date_added`

``` r
# notice inconsistent text format in country names
dt %>% 
  count(country)
```

    ## # A tibble: 749 x 2
    ##    country                                                 n
    ##    <chr>                                               <int>
    ##  1 , France, Algeria                                       1
    ##  2 , South Korea                                           1
    ##  3 Argentina                                              56
    ##  4 Argentina, Brazil, France, Poland, Germany, Denmark     1
    ##  5 Argentina, Chile                                        2
    ##  6 Argentina, Chile, Peru                                  1
    ##  7 Argentina, France                                       1
    ##  8 Argentina, France, United States, Germany, Qatar        1
    ##  9 Argentina, Italy                                        1
    ## 10 Argentina, Spain                                        8
    ## # ... with 739 more rows
…
